<?xml version="1.0" encoding="UTF-8" standalone="no"?>
<!-- Generator: Adobe Illustrator 17.0.0, SVG Export Plug-In . SVG Version: 6.00 Build 0)  -->

<svg
   version="1.1"
   id="Layer_1"
   x="0px"
   y="0px"
   width="512px"
   height="512px"
   viewBox="0 0 512 512"
   enable-background="new 0 0 512 512"
   xml:space="preserve"
   sodipodi:docname="comment_seen.svg"
   inkscape:version="1.1.2 (0a00cf5339, 2022-02-04)"
   xmlns:inkscape="http://www.inkscape.org/namespaces/inkscape"
   xmlns:sodipodi="http://sodipodi.sourceforge.net/DTD/sodipodi-0.dtd"
   xmlns="http://www.w3.org/2000/svg"
   xmlns:svg="http://www.w3.org/2000/svg"><defs
   id="defs14" /><sodipodi:namedview
   id="namedview12"
   pagecolor="#ffffff"
   bordercolor="#666666"
   borderopacity="1.0"
   inkscape:pageshadow="2"
   inkscape:pageopacity="0.0"
   inkscape:pagecheckerboard="0"
   showgrid="false"
   inkscape:zoom="1.1241893"
   inkscape:cx="216.60053"
   inkscape:cy="299.77158"
   inkscape:window-width="1920"
   inkscape:window-height="1020"
   inkscape:window-x="0"
   inkscape:window-y="0"
   inkscape:window-maximized="1"
   inkscape:current-layer="Layer_1"
   showguides="false" />
<g
   id="Layer_2"
   display="none">
	<rect
   x="-109.5"
   y="-86.5"
   display="inline"
   stroke="#000000"
   stroke-miterlimit="10"
   width="721"
   height="687"
   id="rect2" />
</g>

<line
   fill="none"
   x1="349.5"
   y1="241.48"
   x2="349.5"
   y2="288.23"
   id="line7" />
<line
   fill="none"
   x1="162.5"
   y1="288.23"
   x2="162.5"
   y2="241.48"
   id="line9" />
<path
   id="path850"
   style="fill:#969696;fill-opacity:1;stroke-width:3.75911;stroke-linecap:round;stroke-linejoin:round;paint-order:stroke fill markers"
   d="M 256.00116,22.133685 C 122.34736,22.132849 13.999202,104.92688 14,207.05838 c 0.06486,56.72954 34.20146,110.29746 92.60537,145.31841 V 489.86632 L 278.06458,390.8764 C 402.47952,382.17234 497.7734,302.52745 498,207.05838 498.00079,104.92758 389.65405,22.133831 256.00116,22.133685 Z"
   sodipodi:nodetypes="ccccccc" /></svg>
