<?xml version="1.0" encoding="UTF-8" standalone="no"?>
<!-- Generator: Adobe Illustrator 17.0.0, SVG Export Plug-In . SVG Version: 6.00 Build 0)  -->

<svg
   version="1.1"
   id="Layer_1"
   x="0px"
   y="0px"
   width="500"
   height="500"
   viewBox="0 0 500 500"
   enable-background="new 0 0 500 500"
   xml:space="preserve"
   sodipodi:docname="config_shortcuts.svg"
   inkscape:version="1.1.2 (0a00cf5339, 2022-02-04)"
   xmlns:inkscape="http://www.inkscape.org/namespaces/inkscape"
   xmlns:sodipodi="http://sodipodi.sourceforge.net/DTD/sodipodi-0.dtd"
   xmlns="http://www.w3.org/2000/svg"
   xmlns:svg="http://www.w3.org/2000/svg"><defs
   id="defs11" /><sodipodi:namedview
   id="namedview9"
   pagecolor="#ffffff"
   bordercolor="#666666"
   borderopacity="1.0"
   inkscape:pageshadow="2"
   inkscape:pageopacity="0.0"
   inkscape:pagecheckerboard="0"
   showgrid="false"
   showguides="true"
   inkscape:guide-bbox="true"
   inkscape:zoom="1.1511698"
   inkscape:cx="192.41297"
   inkscape:cy="307.51328"
   inkscape:window-width="1920"
   inkscape:window-height="1020"
   inkscape:window-x="0"
   inkscape:window-y="0"
   inkscape:window-maximized="1"
   inkscape:current-layer="Layer_1"><sodipodi:guide
     position="302.82555,258.90663"
     orientation="0,-1"
     id="guide1578" /><sodipodi:guide
     position="287.77641,91.830467"
     orientation="0,-1"
     id="guide1694" /><sodipodi:guide
     position="180.43652,248.35729"
     orientation="1,0"
     id="guide1772" /><sodipodi:guide
     position="319.41032,225.12285"
     orientation="1,0"
     id="guide1774" /><sodipodi:guide
     position="340.52318,211.59772"
     orientation="1,0"
     id="guide1007" /><sodipodi:guide
     position="159.83741,212.4664"
     orientation="1,0"
     id="guide1009" /></sodipodi:namedview>
<path
   id="path850"
   style="fill:#ffffff;fill-opacity:1;stroke:none;stroke-width:2.52065;stroke-linecap:round;stroke-linejoin:round;paint-order:stroke markers fill"
   d="M 250 8 C 116.34713 8.0000827 8.0000827 116.34713 8 250 C 8.0000827 383.65287 116.34713 491.99992 250 492 C 383.65287 491.99992 491.99992 383.65287 492 250 C 491.99992 116.34713 383.65287 8.0000827 250 8 z M 131.68945 121.19141 L 368.31055 121.19141 C 376.86748 121.19141 383.75781 128.77155 383.75781 138.1875 L 383.75781 361.8125 C 383.75781 371.22846 376.86748 378.80859 368.31055 378.80859 L 131.68945 378.80859 C 123.13252 378.80859 116.24219 371.22846 116.24219 361.8125 L 116.24219 138.1875 C 116.24219 128.77155 123.13252 121.19141 131.68945 121.19141 z M 183.30273 143.01172 C 179.17773 143.01172 175.11523 144.41797 171.11523 147.23047 C 167.11523 150.04297 164.30273 153.82422 162.67773 158.57422 L 134.27148 241.07422 C 132.77148 245.57422 133.39648 249.76172 136.14648 253.63672 C 138.89648 257.57422 142.61523 259.54297 147.30273 259.54297 L 149.36523 259.54297 C 152.92773 259.54297 156.05273 258.63672 158.74023 256.82422 C 161.36523 255.01172 162.95898 252.60547 163.52148 249.60547 L 168.02148 226.63672 L 203.55273 226.63672 L 208.42773 249.88672 C 208.92773 252.63672 210.45898 254.91797 213.02148 256.73047 C 215.58398 258.60547 218.36523 259.54297 221.36523 259.54297 L 223.42773 259.54297 C 228.11523 259.54297 231.86523 257.57422 234.67773 253.63672 C 237.49023 249.76172 238.08398 245.57422 236.45898 241.07422 L 206.55273 158.19922 C 204.92773 153.69922 202.08398 150.04297 198.02148 147.23047 C 194.02148 144.41797 189.99023 143.01172 185.92773 143.01172 L 183.30273 143.01172 z M 184.99023 167.29297 L 200.17773 209.38672 L 169.70898 209.38672 L 184.99023 167.29297 z " />

<g
   id="g1442"
   transform="matrix(0.76642572,0,0,0.76642572,58.39357,50.624122)" /><g
   id="g1181" /><g
   id="g1494" /><g
   id="g4035"
   transform="rotate(-45,291.99344,132.2158)"><g
     id="g3971" /></g></svg>
