<?xml version="1.0" encoding="UTF-8" standalone="no"?>
<!-- Generator: Adobe Illustrator 17.0.0, SVG Export Plug-In . SVG Version: 6.00 Build 0)  -->

<svg
   version="1.1"
   id="Layer_1"
   x="0px"
   y="0px"
   width="500"
   height="500"
   viewBox="0 0 500 500"
   enable-background="new 0 0 500 500"
   xml:space="preserve"
   sodipodi:docname="config_ui.svg"
   inkscape:version="1.1.2 (0a00cf5339, 2022-02-04)"
   xmlns:inkscape="http://www.inkscape.org/namespaces/inkscape"
   xmlns:sodipodi="http://sodipodi.sourceforge.net/DTD/sodipodi-0.dtd"
   xmlns="http://www.w3.org/2000/svg"
   xmlns:svg="http://www.w3.org/2000/svg"><defs
   id="defs11" /><sodipodi:namedview
   id="namedview9"
   pagecolor="#ffffff"
   bordercolor="#666666"
   borderopacity="1.0"
   inkscape:pageshadow="2"
   inkscape:pageopacity="0.0"
   inkscape:pagecheckerboard="0"
   showgrid="false"
   showguides="true"
   inkscape:guide-bbox="true"
   inkscape:zoom="1.1511698"
   inkscape:cx="307.07894"
   inkscape:cy="337.04845"
   inkscape:window-width="1920"
   inkscape:window-height="1020"
   inkscape:window-x="0"
   inkscape:window-y="0"
   inkscape:window-maximized="1"
   inkscape:current-layer="Layer_1"><sodipodi:guide
     position="302.82555,258.90663"
     orientation="0,-1"
     id="guide1578" /><sodipodi:guide
     position="287.77641,91.830467"
     orientation="0,-1"
     id="guide1694" /><sodipodi:guide
     position="180.43652,248.35729"
     orientation="1,0"
     id="guide1772" /><sodipodi:guide
     position="319.41032,225.12285"
     orientation="1,0"
     id="guide1774" /><sodipodi:guide
     position="340.52318,211.59772"
     orientation="1,0"
     id="guide1007" /><sodipodi:guide
     position="159.83741,212.4664"
     orientation="1,0"
     id="guide1009" /></sodipodi:namedview>
<path
   id="path850"
   style="fill:#ffffff;fill-opacity:1;stroke:none;stroke-width:2.52065;stroke-linecap:round;stroke-linejoin:round;paint-order:stroke markers fill"
   d="M 250 8 C 116.34713 8.0000827 8.0000827 116.34713 8 250 C 8.0000827 383.65287 116.34713 491.99992 250 492 C 383.65287 491.99992 491.99992 383.65287 492 250 C 491.99992 116.34713 383.65287 8.0000827 250 8 z M 105.32617 114.63281 L 394.67383 114.63281 C 405.1793 114.63281 413.63672 122.58619 413.63672 132.4668 L 413.63672 367.53516 C 413.63672 377.41578 405.1793 385.36719 394.67383 385.36719 L 105.32617 385.36719 C 94.820705 385.36719 86.363282 377.41578 86.363281 367.53516 L 86.363281 132.4668 C 86.363282 122.58619 94.820705 114.63281 105.32617 114.63281 z M 124.10742 169.31641 C 114.99362 169.31641 107.65625 175.06366 107.65625 182.20312 L 107.65625 352.05859 C 107.65625 359.19806 114.99362 364.94531 124.10742 364.94531 L 375.12305 364.94531 C 384.23686 364.94531 391.57422 359.19806 391.57422 352.05859 L 391.57422 182.20312 C 391.57422 175.06366 384.23686 169.31641 375.12305 169.31641 L 124.10742 169.31641 z M 145.59961 195.36133 L 253.94336 195.36133 C 263.36136 195.36133 270.94336 202.94333 270.94336 212.36133 L 270.94336 330.17383 C 270.94336 339.59183 263.36136 347.17383 253.94336 347.17383 L 145.59961 347.17383 C 136.18161 347.17383 128.59961 339.59183 128.59961 330.17383 L 128.59961 212.36133 C 128.59961 202.94333 136.18161 195.36133 145.59961 195.36133 z M 309.8457 315.58398 L 352.21484 315.58398 C 361.63285 315.58398 369.21484 323.16598 369.21484 332.58398 L 369.21484 334.62891 C 369.21484 344.04691 361.63285 351.62891 352.21484 351.62891 L 309.8457 351.62891 C 300.4277 351.62891 292.8457 344.04691 292.8457 334.62891 L 292.8457 332.58398 C 292.8457 323.16598 300.4277 315.58398 309.8457 315.58398 z " />

<g
   id="g1442"
   transform="matrix(0.76642572,0,0,0.76642572,58.39357,50.624122)" /><g
   id="g1181" /><g
   id="g1494" /></svg>
