<?xml version="1.0" encoding="UTF-8" standalone="no"?>
<!-- Generator: Adobe Illustrator 17.0.0, SVG Export Plug-In . SVG Version: 6.00 Build 0)  -->

<svg
   version="1.1"
   id="Layer_1"
   x="0px"
   y="0px"
   width="500"
   height="500"
   viewBox="0 0 500 500"
   enable-background="new 0 0 500 500"
   xml:space="preserve"
   sodipodi:docname="image-x-generic.svg"
   inkscape:version="1.1.2 (0a00cf5339, 2022-02-04)"
   xmlns:inkscape="http://www.inkscape.org/namespaces/inkscape"
   xmlns:sodipodi="http://sodipodi.sourceforge.net/DTD/sodipodi-0.dtd"
   xmlns="http://www.w3.org/2000/svg"
   xmlns:svg="http://www.w3.org/2000/svg"><defs
   id="defs11" /><sodipodi:namedview
   id="namedview9"
   pagecolor="#ffffff"
   bordercolor="#666666"
   borderopacity="1.0"
   inkscape:pageshadow="2"
   inkscape:pageopacity="0.0"
   inkscape:pagecheckerboard="0"
   showgrid="false"
   showguides="true"
   inkscape:guide-bbox="true"
   inkscape:zoom="1.1511698"
   inkscape:cx="192.41297"
   inkscape:cy="321.41218"
   inkscape:window-width="1920"
   inkscape:window-height="1020"
   inkscape:window-x="0"
   inkscape:window-y="0"
   inkscape:window-maximized="1"
   inkscape:current-layer="Layer_1"><sodipodi:guide
     position="302.82555,258.90663"
     orientation="0,-1"
     id="guide1578" /><sodipodi:guide
     position="287.77641,91.830467"
     orientation="0,-1"
     id="guide1694" /><sodipodi:guide
     position="180.43652,248.35729"
     orientation="1,0"
     id="guide1772" /><sodipodi:guide
     position="319.41032,225.12285"
     orientation="1,0"
     id="guide1774" /><sodipodi:guide
     position="340.52318,211.59772"
     orientation="1,0"
     id="guide1007" /><sodipodi:guide
     position="159.83741,212.4664"
     orientation="1,0"
     id="guide1009" /></sodipodi:namedview>
<path
   id="path850"
   style="fill:#ffffff;fill-opacity:1;stroke:none;stroke-width:2.52065;stroke-linecap:round;stroke-linejoin:round;paint-order:stroke markers fill"
   d="M 250 8 C 116.34713 8.0000827 8.0000827 116.34713 8 250 C 8.0000827 383.65287 116.34713 491.99992 250 492 C 383.65287 491.99992 491.99992 383.65287 492 250 C 491.99992 116.34713 383.65287 8.0000827 250 8 z M 112.56445 106.83984 L 387.43555 106.83984 C 395.74555 106.83984 402.43555 114.13319 402.43555 123.19141 L 402.43555 376.80859 C 402.43555 385.86681 395.74555 393.16016 387.43555 393.16016 L 112.56445 393.16016 C 104.25445 393.16016 97.564453 385.86681 97.564453 376.80859 L 97.564453 123.19141 C 97.564453 114.13319 104.25445 106.83984 112.56445 106.83984 z M 331.44141 145.35938 A 36.605717 36.801037 0 0 0 294.83594 182.16016 A 36.605717 36.801037 0 0 0 331.44141 218.96094 A 36.605717 36.801037 0 0 0 368.04688 182.16016 A 36.605717 36.801037 0 0 0 331.44141 145.35938 z M 198.40625 191.2168 L 133.25195 304.06445 L 131.60547 310.4668 L 305.93359 310.4668 L 265.88086 241.09375 L 241.35938 265.61523 L 198.40625 191.2168 z M 137.03906 326.72852 C 128.29521 326.72852 121.25586 336.64124 121.25586 348.95312 C 121.25586 361.26501 128.29521 371.17578 137.03906 371.17578 L 362.96094 371.17578 C 371.70479 371.17578 378.74414 361.26501 378.74414 348.95312 C 378.74414 336.64124 371.70479 326.72852 362.96094 326.72852 L 137.03906 326.72852 z " />

<g
   id="g1442"
   transform="matrix(0.76642572,0,0,0.76642572,58.39357,50.624122)" /><g
   id="g1181" /><g
   id="g1494" /><g
   id="g4035"
   transform="rotate(-45,291.99344,132.2158)"><g
     id="g3971" /></g></svg>
