<?xml version="1.0" encoding="UTF-8" standalone="no"?>
<!-- Generator: Adobe Illustrator 17.0.0, SVG Export Plug-In . SVG Version: 6.00 Build 0)  -->

<svg
   version="1.1"
   id="Layer_1"
   x="0px"
   y="0px"
   width="24"
   height="24"
   viewBox="0 0 24 24"
   enable-background="new 0 0 500 500"
   xml:space="preserve"
   sodipodi:docname="config_audio_output.svg"
   inkscape:version="1.1.2 (0a00cf5339, 2022-02-04)"
   xmlns:inkscape="http://www.inkscape.org/namespaces/inkscape"
   xmlns:sodipodi="http://sodipodi.sourceforge.net/DTD/sodipodi-0.dtd"
   xmlns="http://www.w3.org/2000/svg"
   xmlns:svg="http://www.w3.org/2000/svg"><defs
   id="defs11" /><sodipodi:namedview
   id="namedview9"
   pagecolor="#ffffff"
   bordercolor="#666666"
   borderopacity="1.0"
   inkscape:pageshadow="2"
   inkscape:pageopacity="0.0"
   inkscape:pagecheckerboard="0"
   showgrid="false"
   showguides="true"
   inkscape:guide-bbox="true"
   inkscape:zoom="0.814"
   inkscape:cx="235.25799"
   inkscape:cy="409.09091"
   inkscape:window-width="1920"
   inkscape:window-height="1020"
   inkscape:window-x="0"
   inkscape:window-y="0"
   inkscape:window-maximized="1"
   inkscape:current-layer="Layer_1"><sodipodi:guide
     position="319.41032,258.86022"
     orientation="0,-1"
     id="guide1578" /><sodipodi:guide
     position="287.77641,91.830467"
     orientation="0,-1"
     id="guide1694" /><sodipodi:guide
     position="180.43652,248.35729"
     orientation="1,0"
     id="guide1772" /><sodipodi:guide
     position="319.41032,225.12285"
     orientation="1,0"
     id="guide1774" /><sodipodi:guide
     position="319.41032,288.69779"
     orientation="1,0"
     id="guide2087" /><sodipodi:guide
     position="358.33114,348.84941"
     orientation="0,-1"
     id="guide2920" /></sodipodi:namedview>
<path
   id="path850"
   style="fill:#feffff;fill-opacity:1;stroke:none;stroke-width:0.114575;stroke-linecap:round;stroke-linejoin:round;paint-order:stroke markers fill"
   d="M 12,1.0000001 C 5.9248699,1.0000039 1.0000039,5.9248699 1.0000001,12 1.0000039,18.075131 5.9248699,22.999997 12,23 c 6.075131,-3e-6 10.999997,-4.924869 11,-11 -3e-6,-6.0751301 -4.924869,-10.9999961 -11,-10.9999999 z m 2.038361,3.9414468 c -0.427034,4.639355 -0.517358,9.3296691 0,14.1118731 0,0 -2.759069,0.301433 -4.9795651,-3.640025 h -0.907988 v 0.300267 c 0,0.201289 -0.162049,0.363337 -0.363338,0.363337 h -2.987863 c -0.201289,0 -0.363338,-0.162048 -0.363338,-0.363337 V 8.8952229 c 0,-0.201289 0.162049,-0.363337 0.363338,-0.363337 h 2.987863 c 0.201289,0 0.363338,0.162048 0.363338,0.363337 v 0.282704 h 0.817065 c 2.2353591,-4.068091 5.0704881,-4.23648 5.0704881,-4.23648 z m 3.127397,0.346483 c 0.222554,-9.49e-4 0.450331,0.08511 0.690217,0.304348 1.279394,1.169244 -1.244076,2.336211 -0.509524,3.906053 0.734552,1.5698441 3.247333,0.380096 3.32521,2.1115431 0.07789,1.731447 -2.531612,0.772157 -3.122252,2.401609 -0.59064,1.629454 2.027468,2.565102 0.858224,3.844492 -1.001595,1.095951 -2.002298,-0.593353 -3.255221,-0.640098 -0.713039,-3.592775 -0.928188,-7.197773 0,-10.8308391 0.742888,-0.332592 1.355455,-1.094297 2.013346,-1.097108 z" />

<g
   id="g1442"
   transform="matrix(0.76642572,0,0,0.76642572,58.39357,50.624122)" /><g
   id="g3979"
   transform="translate(-24.528847,-2.8695385)" /></svg>
